%YAML 1.1
%TAG !u! tag:unity3d.com,2011:
--- !u!74 &7400000
AnimationClip:
  m_ObjectHideFlags: 0
  m_PrefabParentObject: {fileID: 0}
  m_PrefabInternal: {fileID: 0}
  m_Name: smg_eject_slider
  serializedVersion: 6
  m_Legacy: 1
  m_Compressed: 0
  m_UseHighQualityCurve: 1
  m_RotationCurves: []
  m_CompressedRotationCurves: []
  m_EulerCurves: []
  m_PositionCurves:
  - curve:
      serializedVersion: 2
      m_Curve:
      - time: 0
        value: {x: 0.0088, y: 0.00724, z: 0.02913}
        inSlope: {x: 0, y: 0, z: -1.4178}
        outSlope: {x: 0, y: 0, z: -1.4178}
        tangentMode: 0
      - time: 0.016666668
        value: {x: 0.0088, y: 0.00724, z: 0.0055}
        inSlope: {x: 0, y: 0, z: -0.35444996}
        outSlope: {x: 0, y: 0, z: -0.35444996}
        tangentMode: 0
      - time: 0.05
        value: {x: 0.0088, y: 0.00724, z: 0.02913}
        inSlope: {x: 0, y: 0, z: 0.70890003}
        outSlope: {x: 0, y: 0, z: 0.70890003}
        tangentMode: 0
      m_PreInfinity: 2
      m_PostInfinity: 2
      m_RotationOrder: 4
    path: 
  m_ScaleCurves: []
  m_FloatCurves: []
  m_PPtrCurves: []
  m_SampleRate: 60
  m_WrapMode: 1
  m_Bounds:
    m_Center: {x: 0, y: 0, z: 0}
    m_Extent: {x: 0, y: 0, z: 0}
  m_ClipBindingConstant:
    genericBindings: []
    pptrCurveMapping: []
  m_AnimationClipSettings:
    serializedVersion: 2
    m_AdditiveReferencePoseClip: {fileID: 0}
    m_AdditiveReferencePoseTime: 0
    m_StartTime: 0
    m_StopTime: 0.05
    m_OrientationOffsetY: 0
    m_Level: 0
    m_CycleOffset: 0
    m_HasAdditiveReferencePose: 0
    m_LoopTime: 0
    m_LoopBlend: 0
    m_LoopBlendOrientation: 0
    m_LoopBlendPositionY: 0
    m_LoopBlendPositionXZ: 0
    m_KeepOriginalOrientation: 0
    m_KeepOriginalPositionY: 1
    m_KeepOriginalPositionXZ: 0
    m_HeightFromFeet: 0
    m_Mirror: 0
  m_EditorCurves:
  - curve:
      serializedVersion: 2
      m_Curve:
      - time: 0
        value: 0.0088
        inSlope: 0
        outSlope: 0
        tangentMode: 10
      - time: 0.016666668
        value: 0.0088
        inSlope: 0
        outSlope: 0
        tangentMode: 10
      - time: 0.05
        value: 0.0088
        inSlope: 0
        outSlope: 0
        tangentMode: 10
      m_PreInfinity: 2
      m_PostInfinity: 2
      m_RotationOrder: 4
    attribute: m_LocalPosition.x
    path: 
    classID: 4
    script: {fileID: 0}
  - curve:
      serializedVersion: 2
      m_Curve:
      - time: 0
        value: 0.00724
        inSlope: 0
        outSlope: 0
        tangentMode: 10
      - time: 0.016666668
        value: 0.00724
        inSlope: 0
        outSlope: 0
        tangentMode: 10
      - time: 0.05
        value: 0.00724
        inSlope: 0
        outSlope: 0
        tangentMode: 10
      m_PreInfinity: 2
      m_PostInfinity: 2
      m_RotationOrder: 4
    attribute: m_LocalPosition.y
    path: 
    classID: 4
    script: {fileID: 0}
  - curve:
      serializedVersion: 2
      m_Curve:
      - time: 0
        value: 0.02913
        inSlope: -1.4178
        outSlope: -1.4178
        tangentMode: 10
      - time: 0.016666668
        value: 0.0055
        inSlope: -0.35444996
        outSlope: -0.35444996
        tangentMode: 10
      - time: 0.05
        value: 0.02913
        inSlope: 0.70890003
        outSlope: 0.70890003
        tangentMode: 10
      m_PreInfinity: 2
      m_PostInfinity: 2
      m_RotationOrder: 4
    attribute: m_LocalPosition.z
    path: 
    classID: 4
    script: {fileID: 0}
  m_EulerEditorCurves: []
  m_HasGenericRootTransform: 0
  m_HasMotionFloatCurves: 0
  m_GenerateMotionCurves: 0
  m_Events: []
