%YAML 1.1
%TAG !u! tag:unity3d.com,2011:
--- !u!74 &7400000
AnimationClip:
  m_ObjectHideFlags: 0
  m_PrefabParentObject: {fileID: 0}
  m_PrefabInternal: {fileID: 0}
  m_Name: handgun_empty_mag_out
  serializedVersion: 6
  m_Legacy: 1
  m_Compressed: 0
  m_UseHighQualityCurve: 1
  m_RotationCurves:
  - curve:
      serializedVersion: 2
      m_Curve:
      - time: 0
        value: {x: -0.00000003090862, y: -0.70710677, z: -0.70710677, w: 0.00000003090862}
        inSlope: {x: -0.000000022651319, y: 0.5246115, z: -0.5182028, w: -0.000000022931628}
        outSlope: {x: -0.000000022651319, y: 0.5246115, z: -0.5182028, w: -0.000000022931628}
        tangentMode: 0
      - time: 0.016666668
        value: {x: -0.00000003128614, y: -0.69836324, z: -0.7157435, w: 0.000000030526426}
        inSlope: {x: -0.000000022509779, y: 0.52778006, z: -0.51496446, w: -0.000000023070077}
        outSlope: {x: -0.000000022509779, y: 0.52778006, z: -0.51496446, w: -0.000000023070077}
        tangentMode: 13
      - time: 0.033333335
        value: {x: -0.000000031658946, y: -0.6895141, z: -0.72427225, w: 0.000000030139617}
        inSlope: {x: -0.000000022224672, y: 0.53406894, z: -0.5084413, w: -0.000000023344843}
        outSlope: {x: -0.000000022224672, y: 0.53406894, z: -0.5084413, w: -0.000000023344843}
        tangentMode: 13
      - time: 0.050000004
        value: {x: -0.000000032026964, y: -0.68056095, z: -0.7326915, w: 0.000000029748264}
        inSlope: {x: -0.000000021935627, y: 0.5402684, z: -0.5018288, w: -0.00000002361583}
        outSlope: {x: -0.000000021935627, y: 0.5402684, z: -0.5018288, w: -0.00000002361583}
        tangentMode: 126199896
      - time: 0.06666667
        value: {x: -0.000000032390133, y: -0.67150515, z: -0.7409999, w: 0.000000029352423}
        inSlope: {x: -0.000000021643702, y: 0.54639465, z: -0.49515012, w: -0.00000002388367}
        outSlope: {x: -0.000000021643702, y: 0.54639465, z: -0.49515012, w: -0.00000002388367}
        tangentMode: 0
      - time: 0.083333336
        value: {x: -0.00000003274842, y: -0.6623478, z: -0.7491965, w: 0.000000028952142}
        inSlope: {x: -0.000000021349004, y: 0.5524493, z: -0.48840883, w: -0.000000024148312}
        outSlope: {x: -0.000000021349004, y: 0.5524493, z: -0.48840883, w: -0.000000024148312}
        tangentMode: 0
      - time: 0.1
        value: {x: -0.000000033101767, y: -0.6530902, z: -0.7572802, w: 0.000000028547479}
        inSlope: {x: -0.000000021050576, y: 0.55841094, z: -0.48158172, w: -0.000000024408903}
        outSlope: {x: -0.000000021050576, y: 0.55841094, z: -0.48158172, w: -0.000000024408903}
        tangentMode: 39
      - time: 0.11666667
        value: {x: -0.000000033450107, y: -0.6437341, z: -0.76524925, w: 0.000000028138512}
        inSlope: {x: -0.000000020748733, y: 0.5642812, z: -0.47467583, w: -0.000000024665546}
        outSlope: {x: -0.000000020748733, y: 0.5642812, z: -0.47467583, w: -0.000000024665546}
        tangentMode: 1085276160
      - time: 0.13333334
        value: {x: -0.00000003379339, y: -0.6342808, z: -0.7731027, w: 0.000000027725294}
        inSlope: {x: -0.000000020444123, y: 0.5700712, z: -0.46770567, w: -0.000000024918624}
        outSlope: {x: -0.000000020444123, y: 0.5700712, z: -0.46770567, w: -0.000000024918624}
        tangentMode: 16777473
      - time: 0.15
        value: {x: -0.000000034131578, y: -0.6247317, z: -0.78083944, w: 0.000000027307891}
        inSlope: {x: -0.000000020136428, y: 0.57577556, z: -0.46066585, w: -0.000000025167923}
        outSlope: {x: -0.000000020136428, y: 0.57577556, z: -0.46066585, w: -0.000000025167923}
        tangentMode: 1090519040
      - time: 0.16666667
        value: {x: -0.000000034464605, y: -0.6150883, z: -0.7884582, w: 0.000000026886363}
        inSlope: {x: -0.000000019825423, y: 0.5813939, z: -0.45355442, w: -0.00000002541354}
        outSlope: {x: -0.000000019825423, y: 0.5813939, z: -0.45355442, w: -0.00000002541354}
        tangentMode: 684679972
      - time: 0.18333334
        value: {x: -0.000000034792425, y: -0.6053519, z: -0.7959579, w: 0.000000026460773}
        inSlope: {x: -0.000000019511754, y: 0.5869246, z: -0.44637683, w: -0.00000002565532}
        outSlope: {x: -0.000000019511754, y: 0.5869246, z: -0.44637683, w: -0.00000002565532}
        tangentMode: 0
      - time: 0.2
        value: {x: -0.000000035114997, y: -0.59552413, z: -0.80333745, w: 0.000000026031186}
        inSlope: {x: -0.000000019354333, y: 0.5896676, z: -0.44277194, w: -0.000000025775224}
        outSlope: {x: -0.000000019354333, y: 0.5896676, z: -0.44277194, w: -0.000000025775224}
        tangentMode: 7340111
      m_PreInfinity: 2
      m_PostInfinity: 2
      m_RotationOrder: 4
    path: 
  m_CompressedRotationCurves: []
  m_EulerCurves: []
  m_PositionCurves:
  - curve:
      serializedVersion: 2
      m_Curve:
      - time: 0
        value: {x: -0, y: -0.01774622, z: -0.016048398}
        inSlope: {x: 0, y: -0.2412689, z: -0.06775801}
        outSlope: {x: 0, y: -0.2412689, z: -0.06775801}
        tangentMode: 1
      - time: 0.2
        value: {x: 0, y: -0.066, z: -0.0296}
        inSlope: {x: 0, y: -0.2412689, z: -0.06775801}
        outSlope: {x: 0, y: -0.2412689, z: -0.06775801}
        tangentMode: 0
      m_PreInfinity: 2
      m_PostInfinity: 2
      m_RotationOrder: 4
    path: 
  m_ScaleCurves: []
  m_FloatCurves:
  - curve:
      serializedVersion: 2
      m_Curve:
      - time: 0
        value: 1
        inSlope: Infinity
        outSlope: Infinity
        tangentMode: 31
      m_PreInfinity: 2
      m_PostInfinity: 2
      m_RotationOrder: 4
    attribute: m_Enabled
    path: 
    classID: 23
    script: {fileID: 0}
  - curve:
      serializedVersion: 2
      m_Curve:
      - time: 0
        value: 1
        inSlope: Infinity
        outSlope: Infinity
        tangentMode: 31
      - time: 0.2
        value: 0
        inSlope: Infinity
        outSlope: Infinity
        tangentMode: 31
      m_PreInfinity: 2
      m_PostInfinity: 2
      m_RotationOrder: 4
    attribute: m_IsKinematic
    path: 
    classID: 54
    script: {fileID: 0}
  - curve:
      serializedVersion: 2
      m_Curve:
      - time: 0
        value: 0
        inSlope: Infinity
        outSlope: Infinity
        tangentMode: 31
      - time: 0.2
        value: 1
        inSlope: Infinity
        outSlope: Infinity
        tangentMode: 31
      m_PreInfinity: 2
      m_PostInfinity: 2
      m_RotationOrder: 4
    attribute: m_UseGravity
    path: 
    classID: 54
    script: {fileID: 0}
  m_PPtrCurves: []
  m_SampleRate: 60
  m_WrapMode: 1
  m_Bounds:
    m_Center: {x: 0, y: 0, z: 0}
    m_Extent: {x: 0, y: 0, z: 0}
  m_ClipBindingConstant:
    genericBindings: []
    pptrCurveMapping: []
  m_AnimationClipSettings:
    serializedVersion: 2
    m_AdditiveReferencePoseClip: {fileID: 0}
    m_AdditiveReferencePoseTime: 0
    m_StartTime: 0
    m_StopTime: 0.2
    m_OrientationOffsetY: 0
    m_Level: 0
    m_CycleOffset: 0
    m_HasAdditiveReferencePose: 0
    m_LoopTime: 0
    m_LoopBlend: 0
    m_LoopBlendOrientation: 0
    m_LoopBlendPositionY: 0
    m_LoopBlendPositionXZ: 0
    m_KeepOriginalOrientation: 0
    m_KeepOriginalPositionY: 1
    m_KeepOriginalPositionXZ: 0
    m_HeightFromFeet: 0
    m_Mirror: 0
  m_EditorCurves:
  - curve:
      serializedVersion: 2
      m_Curve:
      - time: 0
        value: -0
        inSlope: 0
        outSlope: 0
        tangentMode: 10
      - time: 0.2
        value: 0
        inSlope: 0
        outSlope: 0
        tangentMode: 10
      m_PreInfinity: 2
      m_PostInfinity: 2
      m_RotationOrder: 4
    attribute: m_LocalPosition.x
    path: 
    classID: 4
    script: {fileID: 0}
  - curve:
      serializedVersion: 2
      m_Curve:
      - time: 0
        value: -0.01774622
        inSlope: -0.2412689
        outSlope: -0.2412689
        tangentMode: 10
      - time: 0.2
        value: -0.066
        inSlope: -0.2412689
        outSlope: -0.2412689
        tangentMode: 10
      m_PreInfinity: 2
      m_PostInfinity: 2
      m_RotationOrder: 4
    attribute: m_LocalPosition.y
    path: 
    classID: 4
    script: {fileID: 0}
  - curve:
      serializedVersion: 2
      m_Curve:
      - time: 0
        value: -0.016048398
        inSlope: -0.06775801
        outSlope: -0.06775801
        tangentMode: 10
      - time: 0.2
        value: -0.0296
        inSlope: -0.06775801
        outSlope: -0.06775801
        tangentMode: 10
      m_PreInfinity: 2
      m_PostInfinity: 2
      m_RotationOrder: 4
    attribute: m_LocalPosition.z
    path: 
    classID: 4
    script: {fileID: 0}
  - curve:
      serializedVersion: 2
      m_Curve:
      - time: 0
        value: 1
        inSlope: Infinity
        outSlope: Infinity
        tangentMode: 31
      m_PreInfinity: 2
      m_PostInfinity: 2
      m_RotationOrder: 4
    attribute: m_Enabled
    path: 
    classID: 23
    script: {fileID: 0}
  - curve:
      serializedVersion: 2
      m_Curve:
      - time: 0
        value: 1
        inSlope: Infinity
        outSlope: Infinity
        tangentMode: 31
      - time: 0.2
        value: 0
        inSlope: Infinity
        outSlope: Infinity
        tangentMode: 31
      m_PreInfinity: 2
      m_PostInfinity: 2
      m_RotationOrder: 4
    attribute: m_IsKinematic
    path: 
    classID: 54
    script: {fileID: 0}
  - curve:
      serializedVersion: 2
      m_Curve:
      - time: 0
        value: 0
        inSlope: Infinity
        outSlope: Infinity
        tangentMode: 31
      - time: 0.2
        value: 1
        inSlope: Infinity
        outSlope: Infinity
        tangentMode: 31
      m_PreInfinity: 2
      m_PostInfinity: 2
      m_RotationOrder: 4
    attribute: m_UseGravity
    path: 
    classID: 54
    script: {fileID: 0}
  - curve:
      serializedVersion: 2
      m_Curve:
      - time: 0
        value: -0.00000003090862
        inSlope: -0.000000022651319
        outSlope: -0.000000022651319
        tangentMode: 0
      - time: 0.016666668
        value: -0.00000003128614
        inSlope: -0.000000022509779
        outSlope: -0.000000022509779
        tangentMode: 0
      - time: 0.033333335
        value: -0.000000031658946
        inSlope: -0.000000022224672
        outSlope: -0.000000022224672
        tangentMode: 0
      - time: 0.050000004
        value: -0.000000032026964
        inSlope: -0.000000021935627
        outSlope: -0.000000021935627
        tangentMode: 0
      - time: 0.06666667
        value: -0.000000032390133
        inSlope: -0.000000021643702
        outSlope: -0.000000021643702
        tangentMode: 0
      - time: 0.083333336
        value: -0.00000003274842
        inSlope: -0.000000021349004
        outSlope: -0.000000021349004
        tangentMode: 0
      - time: 0.1
        value: -0.000000033101767
        inSlope: -0.000000021050576
        outSlope: -0.000000021050576
        tangentMode: 0
      - time: 0.11666667
        value: -0.000000033450107
        inSlope: -0.000000020748733
        outSlope: -0.000000020748733
        tangentMode: 0
      - time: 0.13333334
        value: -0.00000003379339
        inSlope: -0.000000020444123
        outSlope: -0.000000020444123
        tangentMode: 0
      - time: 0.15
        value: -0.000000034131578
        inSlope: -0.000000020136428
        outSlope: -0.000000020136428
        tangentMode: 0
      - time: 0.16666667
        value: -0.000000034464605
        inSlope: -0.000000019825423
        outSlope: -0.000000019825423
        tangentMode: 0
      - time: 0.18333334
        value: -0.000000034792425
        inSlope: -0.000000019511754
        outSlope: -0.000000019511754
        tangentMode: 0
      - time: 0.2
        value: -0.000000035114997
        inSlope: -0.000000019354333
        outSlope: -0.000000019354333
        tangentMode: 0
      m_PreInfinity: 2
      m_PostInfinity: 2
      m_RotationOrder: 4
    attribute: m_LocalRotation.x
    path: 
    classID: 4
    script: {fileID: 0}
  - curve:
      serializedVersion: 2
      m_Curve:
      - time: 0
        value: -0.70710677
        inSlope: 0.5246115
        outSlope: 0.5246115
        tangentMode: 0
      - time: 0.016666668
        value: -0.69836324
        inSlope: 0.52778006
        outSlope: 0.52778006
        tangentMode: 0
      - time: 0.033333335
        value: -0.6895141
        inSlope: 0.53406894
        outSlope: 0.53406894
        tangentMode: 0
      - time: 0.050000004
        value: -0.68056095
        inSlope: 0.5402684
        outSlope: 0.5402684
        tangentMode: 0
      - time: 0.06666667
        value: -0.67150515
        inSlope: 0.54639465
        outSlope: 0.54639465
        tangentMode: 0
      - time: 0.083333336
        value: -0.6623478
        inSlope: 0.5524493
        outSlope: 0.5524493
        tangentMode: 0
      - time: 0.1
        value: -0.6530902
        inSlope: 0.55841094
        outSlope: 0.55841094
        tangentMode: 0
      - time: 0.11666667
        value: -0.6437341
        inSlope: 0.5642812
        outSlope: 0.5642812
        tangentMode: 0
      - time: 0.13333334
        value: -0.6342808
        inSlope: 0.5700712
        outSlope: 0.5700712
        tangentMode: 0
      - time: 0.15
        value: -0.6247317
        inSlope: 0.57577556
        outSlope: 0.57577556
        tangentMode: 0
      - time: 0.16666667
        value: -0.6150883
        inSlope: 0.5813939
        outSlope: 0.5813939
        tangentMode: 0
      - time: 0.18333334
        value: -0.6053519
        inSlope: 0.5869246
        outSlope: 0.5869246
        tangentMode: 0
      - time: 0.2
        value: -0.59552413
        inSlope: 0.5896676
        outSlope: 0.5896676
        tangentMode: 0
      m_PreInfinity: 2
      m_PostInfinity: 2
      m_RotationOrder: 4
    attribute: m_LocalRotation.y
    path: 
    classID: 4
    script: {fileID: 0}
  - curve:
      serializedVersion: 2
      m_Curve:
      - time: 0
        value: -0.70710677
        inSlope: -0.5182028
        outSlope: -0.5182028
        tangentMode: 0
      - time: 0.016666668
        value: -0.7157435
        inSlope: -0.51496446
        outSlope: -0.51496446
        tangentMode: 0
      - time: 0.033333335
        value: -0.72427225
        inSlope: -0.5084413
        outSlope: -0.5084413
        tangentMode: 0
      - time: 0.050000004
        value: -0.7326915
        inSlope: -0.5018288
        outSlope: -0.5018288
        tangentMode: 0
      - time: 0.06666667
        value: -0.7409999
        inSlope: -0.49515012
        outSlope: -0.49515012
        tangentMode: 0
      - time: 0.083333336
        value: -0.7491965
        inSlope: -0.48840883
        outSlope: -0.48840883
        tangentMode: 0
      - time: 0.1
        value: -0.7572802
        inSlope: -0.48158172
        outSlope: -0.48158172
        tangentMode: 0
      - time: 0.11666667
        value: -0.76524925
        inSlope: -0.47467583
        outSlope: -0.47467583
        tangentMode: 0
      - time: 0.13333334
        value: -0.7731027
        inSlope: -0.46770567
        outSlope: -0.46770567
        tangentMode: 0
      - time: 0.15
        value: -0.78083944
        inSlope: -0.46066585
        outSlope: -0.46066585
        tangentMode: 0
      - time: 0.16666667
        value: -0.7884582
        inSlope: -0.45355442
        outSlope: -0.45355442
        tangentMode: 0
      - time: 0.18333334
        value: -0.7959579
        inSlope: -0.44637683
        outSlope: -0.44637683
        tangentMode: 0
      - time: 0.2
        value: -0.80333745
        inSlope: -0.44277194
        outSlope: -0.44277194
        tangentMode: 0
      m_PreInfinity: 2
      m_PostInfinity: 2
      m_RotationOrder: 4
    attribute: m_LocalRotation.z
    path: 
    classID: 4
    script: {fileID: 0}
  - curve:
      serializedVersion: 2
      m_Curve:
      - time: 0
        value: 0.00000003090862
        inSlope: -0.000000022931628
        outSlope: -0.000000022931628
        tangentMode: 0
      - time: 0.016666668
        value: 0.000000030526426
        inSlope: -0.000000023070077
        outSlope: -0.000000023070077
        tangentMode: 0
      - time: 0.033333335
        value: 0.000000030139617
        inSlope: -0.000000023344843
        outSlope: -0.000000023344843
        tangentMode: 0
      - time: 0.050000004
        value: 0.000000029748264
        inSlope: -0.00000002361583
        outSlope: -0.00000002361583
        tangentMode: 0
      - time: 0.06666667
        value: 0.000000029352423
        inSlope: -0.00000002388367
        outSlope: -0.00000002388367
        tangentMode: 0
      - time: 0.083333336
        value: 0.000000028952142
        inSlope: -0.000000024148312
        outSlope: -0.000000024148312
        tangentMode: 0
      - time: 0.1
        value: 0.000000028547479
        inSlope: -0.000000024408903
        outSlope: -0.000000024408903
        tangentMode: 0
      - time: 0.11666667
        value: 0.000000028138512
        inSlope: -0.000000024665546
        outSlope: -0.000000024665546
        tangentMode: 0
      - time: 0.13333334
        value: 0.000000027725294
        inSlope: -0.000000024918624
        outSlope: -0.000000024918624
        tangentMode: 0
      - time: 0.15
        value: 0.000000027307891
        inSlope: -0.000000025167923
        outSlope: -0.000000025167923
        tangentMode: 0
      - time: 0.16666667
        value: 0.000000026886363
        inSlope: -0.00000002541354
        outSlope: -0.00000002541354
        tangentMode: 0
      - time: 0.18333334
        value: 0.000000026460773
        inSlope: -0.00000002565532
        outSlope: -0.00000002565532
        tangentMode: 0
      - time: 0.2
        value: 0.000000026031186
        inSlope: -0.000000025775224
        outSlope: -0.000000025775224
        tangentMode: 0
      m_PreInfinity: 2
      m_PostInfinity: 2
      m_RotationOrder: 4
    attribute: m_LocalRotation.w
    path: 
    classID: 4
    script: {fileID: 0}
  m_EulerEditorCurves:
  - curve:
      serializedVersion: 2
      m_Curve:
      - time: 0
        value: 270
        inSlope: -84.49997
        outSlope: -84.49997
        tangentMode: 10
      - time: 0.2
        value: 253.1
        inSlope: -84.49997
        outSlope: -84.49997
        tangentMode: 10
      m_PreInfinity: 2
      m_PostInfinity: 2
      m_RotationOrder: 4
    attribute: localEulerAnglesBaked.x
    path: 
    classID: 4
    script: {fileID: 0}
  - curve:
      serializedVersion: 2
      m_Curve:
      - time: 0
        value: 180
        inSlope: 0
        outSlope: 0
        tangentMode: 10
      - time: 0.2
        value: 180
        inSlope: 0
        outSlope: 0
        tangentMode: 10
      m_PreInfinity: 2
      m_PostInfinity: 2
      m_RotationOrder: 4
    attribute: localEulerAnglesBaked.y
    path: 
    classID: 4
    script: {fileID: 0}
  - curve:
      serializedVersion: 2
      m_Curve:
      - time: 0
        value: 0
        inSlope: 0
        outSlope: 0
        tangentMode: 10
      - time: 0.2
        value: 0
        inSlope: 0
        outSlope: 0
        tangentMode: 10
      m_PreInfinity: 2
      m_PostInfinity: 2
      m_RotationOrder: 4
    attribute: localEulerAnglesBaked.z
    path: 
    classID: 4
    script: {fileID: 0}
  m_HasGenericRootTransform: 0
  m_HasMotionFloatCurves: 0
  m_GenerateMotionCurves: 0
  m_Events: []
