<?xml version="1.0" encoding="utf-8"?>
<!-- Generator: Adobe Illustrator 18.0.0, SVG Export Plug-In . SVG Version: 6.00 Build 0)  -->
<!DOCTYPE svg PUBLIC "-//W3C//DTD SVG 1.1//EN" "http://www.w3.org/Graphics/SVG/1.1/DTD/svg11.dtd">
<svg version="1.1" id="Layer_1" xmlns="http://www.w3.org/2000/svg" xmlns:xlink="http://www.w3.org/1999/xlink" x="0px" y="0px"
	 viewBox="0 0 375 375" enable-background="new 0 0 375 375" xml:space="preserve">
<g>
	<path d="M320.5,317.6l-20.4-206.7h34.3V68.1V7.5h-54.2v60.6h-65.6V7.5h-54.2v60.6H94.8V7.5H40.6v60.6v42.8h34.3L54.5,317.6H18.8
		v49.9h337.4v-49.9H320.5z M154.2,172.6h66.5V282h-66.5V172.6z"/>
</g>
</svg>
